1 10 20
100 200 125
201 210 89
900 1000 174
54 18 113
150 250 128
250 2500 209
201 222 115
2600 26000 282
30000 90000 351
230 300 128
950 1000 143
10000 20000 279
100000 110000 354
300 340 144
910 940 174
230 270 128
280 310 118
900 940 174
1500 2000 180
2500 3000 217
450 950 179
540 630 137
10500 11500 268
13000 15000 276
20000 39000 324
50000 55000 340
59000 70000 335
100000 130000 354
83000 95000 333
95000 100000 328
130000 150000 375
150000 165000 383
170000 200000 365
1 50 112
51 150 122
315 415 144
505 905 179
1000 1700 182
750 1250 182
875 1125 174
975 1875 182
204 402 144
2000 2200 170
1300 3500 217
3600 3900 238
4600 5000 210
5400 6300 262
8800 13000 268
12500 19500 279
31500 59500 340
1234 4321 238
1997 2018 144
750 10000 262
5450 9014 262
9412 13490 276
5700 15700 276
6785 19500 279
1577 9300 262
1800 3000 217
1245 8923 262
5600 6500 262
7900 10000 260
9150 10800 260
7800 12000 268
15000 21500 279
6750 8760 257
8770 9770 260
12345 54321 340
9140 10940 260
6400 15200 276
4300 19000 279
7900 12300 268
9850 12350 268
17000 25000 282
18500 31500 308
6200 23450 279
9500 13250 268
15000 45500 324
50000 54321 340
63450 64450 299
1900 2100 175
2150 2350 183
1595 1959 180
300 2335 183
700 8775 262
1200 6900 262
9500 19300 279
8400 16800 276
7654 9876 260
9900 19000 279
13500 23500 279
31500 51300 324
43000 43500 257
21500 24542 282
12321 23432 279
23432 34543 311
19900 29100 308
16300 17900 279
105 895 179
35 65 113
15 85 116
175 815 171
345 655 145
455 755 171
955 1255 182
395 1205 182
1575 1905 180
1300 23400 279
7850 13540 276
1830 3930 238
48120 75320 340
1245 8674 262
2135 7234 262
950 1820 182
1030 1910 182
650 1945 182
6600 7850 257
9450 10950 255
710 1240 182
920 1045 174
1240 1760 180
1860 2350 183
1952 2018 175
1355 2345 183
12340 43215 324
